{
    "name": "DemoProject",
    "references": [
        "GUID:a6d54c55a038aed4f8db0c924f4c4dde",
        "GUID:9f9f5a4a8accdd74297cf41af9d55768"
    ],
    "includePlatforms": [],
    "excludePlatforms": [],
    "allowUnsafeCode": false,
    "overrideReferences": false,
    "precompiledReferences": [],
    "autoReferenced": true,
    "defineConstraints": [],
    "versionDefines": [],
    "noEngineReferences": false
}